{
  "title": "Technology Registry Q1.2019",
  "technologies": [
    {
      "name": "Elm",
      "category": "languages",
      "lifecycle": "consider",
      "link": "http://elm-lang.org/",
      "moved": 0
    },
    {
      "name": "Go",
      "category": "languages",
      "lifecycle": "use",
      "link": "https://golang.org/",
      "moved": 0
    },
    {
      "name": "Kotlin",
      "category": "languages",
      "lifecycle": "use",
      "link": "https://kotlinlang.org/",
      "moved": 0
    },
    {
      "name": "Groovy",
      "category": "languages",
      "lifecycle": "use",
      "link": "http://groovy-lang.org/",
      "moved": 0
    },
    {
      "name": "JavaScript",
      "category": "languages",
      "lifecycle": "use",
      "link": "https://www.javascript.com/",
      "moved": 0
    },
    {
      "name": "TypeScript",
      "category": "languages",
      "lifecycle": "use",
      "link": "https://www.typescriptlang.org/",
      "moved": 0
    },
    {
      "name": "Python",
      "category": "languages",
      "lifecycle": "use",
      "link": "https://www.python.org/",
      "moved": 0
    },
    {
      "name": "Ruby",
      "category": "languages",
      "lifecycle": "abandon",
      "link": "http://www.ruby-lang.org/en/",
      "moved": 0
    },
    {
      "name": "C#",
      "category": "languages",
      "lifecycle": "abandon",
      "link": "https://docs.microsoft.com/cs-cz/dotnet/csharp/",
      "moved": 0
    },
    {
      "name": "Java",
      "category": "languages",
      "lifecycle": "abandon",
      "link": "https://www.oracle.com/java",
      "moved": 0
    },
    {
      "name": "Vue.js",
      "category": "frameworks",
      "lifecycle": "consider",
      "link": "https://vuejs.org/",
      "moved": 0
    },
    {
      "name": "React",
      "category": "frameworks",
      "lifecycle": "use",
      "link": "https://reactjs.org/",
      "moved": 0
    },
    {
      "name": "Spring",
      "category": "frameworks",
      "lifecycle": "use",
      "link": "https://projects.spring.io/spring-framework/",
      "moved": 0
    },
    {
      "name": "Spring Boot",
      "category": "frameworks",
      "lifecycle": "use",
      "link": "https://projects.spring.io/spring-boot/",
      "moved": 0
    },
    {
      "name": "Geb",
      "category": "frameworks",
      "lifecycle": "use",
      "link": "http://www.gebish.org/",
      "moved": 0
    },
    {
      "name": "Jasmine",
      "category": "frameworks",
      "lifecycle": "use",
      "link": "https://jasmine.github.io/",
      "moved": 0
    },
    {
      "name": "Hazelcast",
      "category": "frameworks",
      "lifecycle": "use",
      "link": "https://hazelcast.com/",
      "moved": 0
    },
    {
      "name": "Apache Camel",
      "category": "frameworks",
      "lifecycle": "use",
      "link": "http://camel.apache.org/",
      "moved": 0
    },
    {
      "name": "D3.js",
      "category": "frameworks",
      "lifecycle": "use",
      "link": "https://d3js.org/",
      "moved": 0
    },
    {
      "name": "Elasticsearch",
      "category": "frameworks",
      "lifecycle": "use",
      "link": "https://www.elastic.co/products/elasticsearch",
      "moved": 0
    },
    {
      "name": "AngularJS",
      "category": "frameworks",
      "lifecycle": "abandon",
      "link": "https://angularjs.org/",
      "moved": 0
    },
    {
      "name": "A. Comprehend",
      "category": "runtime",
      "lifecycle": "consider",
      "link": "https://aws.amazon.com/comprehend/",
      "moved": 0
    },
    {
      "name": "AWS Lambda",
      "category": "runtime",
      "lifecycle": "use",
      "link": "https://aws.amazon.com/lambda/",
      "moved": 0
    },
    {
      "name": "Cloud Functions",
      "category": "runtime",
      "lifecycle": "use",
      "link": "https://cloud.google.com/functions/",
      "moved": 1
    },
    {
      "name": "Cloud Datastore",
      "category": "runtime",
      "lifecycle": "use",
      "link": "https://cloud.google.com/datastore/",
      "moved": 1
    },
    {
      "name": "AWS S3",
      "category": "runtime",
      "lifecycle": "use",
      "link": "https://aws.amazon.com/lambda/",
      "moved": 0
    },
    {
      "name": "AWS API GW",
      "category": "runtime",
      "lifecycle": "use",
      "link": "https://aws.amazon.com/api-gateway/",
      "moved": 0
    },
    {
      "name": "AWS EC2",
      "category": "runtime",
      "lifecycle": "use",
      "link": "https://aws.amazon.com/ec2/",
      "moved": 0
    },
    {
      "name": "Apache Kafka",
      "category": "runtime",
      "lifecycle": "use",
      "link": "https://kafka.apache.org/",
      "moved": 0
    },
    {
      "name": "Apache ZooKeeper",
      "category": "runtime",
      "lifecycle": "use",
      "link": "https://zookeeper.apache.org/",
      "moved": 0
    },
    {
      "name": "Node.js",
      "category": "runtime",
      "lifecycle": "use",
      "link": "https://nodejs.org/en/",
      "moved": 0
    },
    {
      "name": "Linux",
      "category": "runtime",
      "lifecycle": "use",
      "link": "https://www.linux.com/",
      "moved": 0
    },
    {
      "name": "Windows",
      "category": "runtime",
      "lifecycle": "abandon",
      "link": "https://www.microsoft.com/en-us/windows",
      "moved": 0
    },
    {
      "name": "Twist",
      "category": "tools",
      "lifecycle": "use",
      "link": "https://twistapp.com/",
      "moved": 0
    },
    {
      "name": "Swagger",
      "category": "tools",
      "lifecycle": "use",
      "link": "https://swagger.io/",
      "moved": 1
    },
    {
      "name": "Gradle",
      "category": "tools",
      "lifecycle": "use",
      "link": "https://gradle.org/",
      "moved": 0
    },
    {
      "name": "Yarn",
      "category": "tools",
      "lifecycle": "use",
      "link": "https://yarnpkg.com/lang/en/",
      "moved": 0
    },
    {
      "name": "JetBrains IDEs",
      "category": "tools",
      "lifecycle": "use",
      "link": "https://www.jetbrains.com/",
      "moved": 0
    },
    {
      "name": "Sublime Text",
      "category": "tools",
      "lifecycle": "use",
      "link": "https://www.sublimetext.com/",
      "moved": 0
    },
    {
      "name": "TeamCity",
      "category": "tools",
      "lifecycle": "use",
      "link": "https://www.jetbrains.com/teamcity/",
      "moved": 0
    },
    {
      "name": "Trello",
      "category": "tools",
      "lifecycle": "use",
      "link": "https://trello.com/",
      "moved": 0
    },
    {
      "name": "Jira",
      "category": "tools",
      "lifecycle": "use",
      "link": "https://www.jetbrains.com/youtrack/",
      "moved": 0
    },
    {
      "name": "TestRail",
      "category": "tools",
      "lifecycle": "use",
      "link": "http://www.gurock.com/testrail/",
      "moved": 0
    },
    {
      "name": "Ansible",
      "category": "tools",
      "lifecycle": "use",
      "link": "https://www.ansible.com/",
      "moved": 0
    },
    {
      "name": "GitLab",
      "category": "tools",
      "lifecycle": "use",
      "link": "https://about.gitlab.com/",
      "moved": 0
    },
    {
      "name": "Docker",
      "category": "tools",
      "lifecycle": "use",
      "link": "https://www.docker.com/",
      "moved": 0
    },
    {
      "name": "Maven",
      "category": "tools",
      "lifecycle": "abandon",
      "link": "https://maven.apache.org/",
      "moved": 0
    },
    {
      "name": "Eclipse",
      "category": "tools",
      "lifecycle": "abandon",
      "link": "https://www.eclipse.org/",
      "moved": 0
    },
    {
      "name": "Jenkins",
      "category": "tools",
      "lifecycle": "abandon",
      "link": "https://jenkins.io/",
      "moved": 0
    }
  ]
}